No,Field Name,Datatype,Col Size,Start,End
1,REC_INDICATOR,CHAR,1,1,1
2,ACTION_CD,CHAR,1,2,2
3,CUST_TYP_CD,CHAR,1,3,3
4,CUST_ID,CHAR,30,4,33
5,CIS_CUST_ID,CHAR,30,34,63
6,BANK_CODE,CHAR,5,64,68
7,BRANCH_CODE,NUMBER,3,69,71
8,BUS_PHONE_EXT,CHAR,4,72,75
9,BUS_PHONE_NBR,CHAR,18,76,93
10,CITZN_CD,CHAR,2,94,95
11,CITZN_ID,CHAR,25,96,120
12,COUNTRY_CD,CHAR,2,121,122
13,CREDIT_REV_DT,DATE,8,123,130
14,CREDIT_RATING,CHAR,5,131,135
15,ISO_CURRENCY_CD,CHAR,3,136,138
16,CUST_SINCE_DT,DATE,8,139,146
17,CUST_TYPE,CHAR,3,147,149
18,DATA_SOURCE,CHAR,2,150,151
19,DOB,DATE,8,152,159
20,DRIV_LIC,CHAR,25,160,184
21,EDUC_LVL_CD,CHAR,2,185,186
22,EMAIL_ADDRESS,CHAR,70,187,256
23,EMPLMT_DT,DATE,8,257,264
24,EMPR_NAME,CHAR,40,265,304
25,FAX_PHONE,CHAR,18,305,322
26,GENDER_CD,CHAR,1,323,323
27,INC_BAL,NUMBER,13,324,336
28,INSIDER_CD,CHAR,1,337,337
29,INSIDER_INST_CD,CHAR,1,338,338
30,INSIDER_REL_CD,CHAR,1,339,339
31,LEGAL_STATUS,NUMBER,2,340,341
32,LOST_CUST_CD,CHAR,3,342,344
33,MAIL_CD,CHAR,1,345,345
34,MARIT_CD,CHAR,1,346,346
35,NAME_1,CHAR,40,347,386
36,NAME_1ST,CHAR,25,387,411
37,NAME_2,CHAR,40,412,451
38,NAME_3,CHAR,40,452,491
39,NAME_LST,CHAR,25,492,516
40,NBR_EMP,NUMBER,13,517,529
41,OCC_CD,CHAR,5,530,534
42,OED_CD,CHAR,1,535,535
43,OED_INST_CD,CHAR,1,536,536
44,ORG_UNIT_ID,NUMBER,8,537,544
45,OTHER_CARD,CHAR,25,545,569
46,PASSPORT,CHAR,25,570,594
47,PERS_PH_EXT,CHAR,4,595,598
48,PERS_PH_NBR,CHAR,18,599,616
49,PRI_ADDR_1,CHAR,40,617,656
50,PRI_ADDR_2,CHAR,40,657,696
51,PRI_ADDR_3,CHAR,40,697,736
52,PRI_CITY,CHAR,30,737,766
53,PRI_POSTAL_CD,CHAR,10,767,776
54,PRIMARY_OFFICER,CHAR,10,777,786
55,RACE_CD,CHAR,1,787,787
56,REG_ADDR_1,CHAR,40,788,827
57,REG_ADDR_2,CHAR,40,828,867
58,REG_ADDR_3,CHAR,40,868,907
59,REG_CITY,CHAR,20,908,927
60,REG_POSTAL_CD,CHAR,10,928,937
61,RESIDENCE_CD,CHAR,1,938,938
62,SALES-VOLUME,NUMBER,13,939,951
63,SALUTATION,VARCHAR,25,952,976
64,SHARE-INFO-CD,CHAR,1,977,977
65,SIC_CD_PRI,CHAR,4,978,981
66,SIC_CD_SEC,CHAR,4,982,985
67,STAT_CD,NUMBER,5,986,990
68,STOCKHLDR_IND,CHAR,1,991,991
69,TAXID,CHAR,25,992,1016
70,VIP_CD,CHAR,5,1017,1021
71,CITZN_ALIEN_CD,CHAR,1,1022,1022
72,NBR_CHILDREN,CHAR,3,1023,1025
73,SPOUSE_NAME,CHAR,40,1026,1065
74,ESTABLISH_DT,Date,8,1066,1073
75,NAME_ENG1,CHAR,40,1074,1113
76,NAME_ENG2,CHAR,40,1114,1153
77,NAME_ENG3,CHAR,40,1154,1193
78,ISO_CD,CHAR,2,1194,1195
79,SWIFT_CODE,CHAR,25,1196,1220
80,FI_CODE,CHAR,25,1221,1245
81,OT_CODE,CHAR,25,1246,1270
82,INC_CODE,CHAR,1,1271,1271
83,SALARY,NUMBER,13,1272,1284
84,REFUSED_SERV_IND,CHAR,1,1285,1285
85,CITIZN_ID_EXP_DT,DATE,8,1286,1293
86,OPENING_BR,CHAR,5,1294,1298
87,PREFER_BR,CHAR,5,1299,1303
88,MARKETING_STAFF_ID,CHAR,5,1304,1308
89,LOAN_STAFF_ID,CHAR,5,1309,1313
90,DEPOSIT_STAFF_ID,CHAR,5,1314,1318
91,FIRST_ACCT_OPEN_DT,DATE,8,1319,1326
92,DELETED_DT,DATE,8,1327,1334
93,LAST_ACTIVITY_DT,DATE,8,1335,1342
94,INACTIVE_DT,DATE,8,1343,1350
95,LAST_CONTACT_DT,DATE,8,1351,1358
96,LOST_CUST_DT,DATE,8,1359,1366
97,DEAD_DT,DATE,8,1367,1374
98,RESIDENT_DT,DATE,8,1375,1382
99,DEPEND_NBR,NUMBER,3,1383,1385
100,SPOUSE_DOB,DATE,8,1386,1393
101,SPOUSE_ID,CHAR,25,1394,1418
102,CUST_OFFICE_NAME,CHAR,40,1419,1458
103,CUST_JOB_TITLE,CHAR,15,1459,1473
104,EMPLOY_STOP_DT,DATE,8,1474,1481
105,CONTACT_TITLE,CHAR,15,1482,1496
106,CONTACT_RESPONSE,CHAR,60,1497,1556
107,BUSINESS_DESC,CHAR,40,1557,1596
108,OWNER_TYPE_CD,CHAR,1,1597,1597
109,BUS_PRI_BANK_NAME,CHAR,40,1598,1637
110,SMALL_BUSINESS_IND,CHAR,1,1638,1638
111,CORE_BUS_PCT,NUMBER,3,1639,1641
112,SUB_BUS_PCT,NUMBER,3,1642,1644
113,CREDIT_NEXT_REV_DT,DATE,8,1645,1652
114,OD_LIMIT,NUMBER,15,1653,1667
115,CC_HOLD_NBR,NUMBER,3,1668,1670
116,DC_HOLD_NBR,NUMBER,3,1671,1673
117,MAX_LN_CREDIT_AMT,NUMBER,15,1674,1688
118,COLLECTOR_STAFF_ID,CHAR,5,1689,1693
119,BANKRUPT_DT,DATE,8,1694,1701
120,REMARK_DESC,CHAR,70,1702,1771
121,REMARK_ADD_EMP_ID,CHAR,8,1772,1779
122,REMARK_EXPIRE_DT,DATE,8,1780,1787
123,MOBILE_PH_NBR,CHAR,18,1788,1805
124,CONTACT_NAME,CHAR,40,1806,1845
125,CONTACT_PH_NBR,CHAR,18,1846,1863
126,PASSPORT_EXP_DT,DATE,8,1864,1871
127,DRIV_LIC_EXP_DT,DATE,8,1872,1879
128,TAX_ID_EXP_DT,DATE,8,1880,1887
129,SC_ID_EXP_DT,DATE,8,1888,1895
130,SWIFT_CODE_EXP_DT,DATE,8,1896,1903
131,FI_CODE_EXP_DT,DATE,8,1904,1911
132,OT_CODE_EXP_DT,DATE,8,1912,1919
133,GOV_CODE,CHAR(25),25,1920,1944
134,WS_OFF_ADDR_1,CHAR,40,1945,1984
135,WS_OFF_ADDR_2,CHAR,40,1985,2024
136,WS_OFF_ADDR_3,CHAR,40,2025,2064
137,WS_OFF_CITY,CHAR,20,2065,2084
138,WS_OFF_POSTAL_CD,CHAR,10,2085,2094
139,RESPONSE_ORG,CHAR,5,2095,2099
140,WORKPERMIT_CARD,CHAR,25,2100,2124
141,TEMPORARY_CARD,CHAR,13,2125,2137
142,WS_AI_CARD,CHAR,25,2138,2162
143,WS_AI_EXPDT,DATE,8,2163,2170
144,WS_WP_EXPDT,DATE,8,2171,2178
145,WS_TC_EXPDT,DATE,8,2179,2186
146,OJ_CARD_ID,CHAR,25,2187,2211
147,OJ_EXPT_DT,DATE,8,2212,2219
148,OTH_PH_NBR,CHAR,18,2220,2237
149,OTH_PH_EXT,CHAR,4,2238,2241
150,CUSTOMER_SEGMENT,CHAR,1,2242,2242
151,RO_CODE,CHAR,5,2243,2247
152,SUB_SEGMENT,CHAR,1,2248,2248
153,SUB_SME_RETAIL,CHAR,1,2249,2249
154,WM_CODE,CHAR,2,2250,2251
155,WM_RM,CHAR,5,2252,2256
156,WM_FX_FLAG,CHAR,1,2257,2257
157,WM_PH_FLAG,CHAR,1,2258,2258
158,CONTACT_CI_1,CHAR,13,2259,2271
159,CONTACT_MOB_1,CHAR,10,2272,2281
160,CONTACT_TITLE_2,CHAR,15,2282,2296
161,CONTACT_NAME_2,CHAR,40,2297,2336
162,CONTACT_RESPONSE_2,CHAR,30,2337,2366
163,CONTACT_CI_2,CHAR,13,2367,2379
164,CONTACT_TEL_2,CHAR,18,2380,2397
165,CONTACT_MOB_2,CHAR,10,2398,2407
166,CONTACT_TITLE_3,CHAR,15,2408,2422
167,CONTACT_NAME_3,CHAR,40,2423,2462
168,CONTACT_RESPONSE_3,CHAR,30,2463,2492
169,CONTACT_CI_3,CHAR,13,2493,2505
170,CONTACT_TEL_3,CHAR,18,2506,2523
171,CONTACT_MOB_3,CHAR,10,2524,2533
172,COPY_ID_CARD_FLAG,CHAR,1,2534,2534
173,KYC_FLAG,CHAR,1,2535,2535
174,IRS_COUNTRY,CHAR,2,2536,2537
175,WS_CI_ISSUE_DT,DATE,8,2538,2545
176,WS_PP_ISSUE_DT,DATE,8,2546,2553
177,WS_WP_ISSUE_DT,DATE,8,2554,2561
178,WS_TN_ISSUE_DT,DATE,8,2562,2569
179,WS_AI_ISSUE_DT,DATE,8,2570,2577
180,WS_TC_ISSUE_DT,DATE,8,2578,2585
181,WS_OT_ISSUE_DT,DATE,8,2586,2593
182,WS_SC_ISSUE_DT,DATE,8,2594,2601
183,WS_FI_ISSUE_DT,DATE,8,2602,2609
184,WS_SW_ISSUE_DT,DATE,8,2610,2617
185,WS_OJ_ISSUE_DT,DATE,8,2618,2625
186,WS_PLACE_OF_BIRTH,CHAR,2,2626,2627
187,WS_NATION_2_CD,CHAR,2,2628,2629
188,WS_INC_CTRY,CHAR,2,2630,2631
189,REG_ISO_CD,CHAR,2,2632,2633
190,OFF_ISO_CD,CHAR,2,2634,2635
191,PRI_ADDR_LST_MNT_DATE,DATE,8,2636,2643
192,REG_ADDR_LST_MNT_DATE,DATE,8,2644,2651
193,OFF_ADDR_LST_MNT_DATE,DATE,8,2652,2659
194,FATCA_FLAG,CHAR,1,2660,2660
195,FATCA_DATE,DATE,8,2661,2668
196,FATCA_STATUS,CHAR,5,2669,2673
197,US_SOCIAL_NO,CHAR,25,2674,2698
198,UE_EMPLOYER_ID,CHAR,25,2699,2723
199,UF_FOREIGN_TIN,CHAR,25,2724,2748
200,WS_NAME_MID,CHAR,25,2749,2773
201,WS_FAC_ADDR_1,CHAR,40,2774,2813
202,WS_FAC_ADDR_2,CHAR,40,2814,2853
203,WS_FAC_ADDR_3,CHAR,40,2854,2893
204,WS_FAC_CITY,CHAR,20,2894,2913
205,WS_FAC_POSTAL_CD,CHAR,10,2914,2923
206,WS_FAC_ISO_CD,CHAR,2,2924,2925
207,NOT_E_CONSOL_FLAG,CHAR,1,2926,2926
208,CC_STMT_FLAG,CHAR,1,2927,2927
209,RDC_STMT_FLAG,CHAR,1,2928,2928
210,C2G_STMT_FLAG,CHAR,1,2929,2929
211,W_CONSOL_FLAG,CHAR,1,2930,2930
212,LST_UPD_CHANNEL,CHAR,8,2931,2938
213,ENG_ADDR_1,CHAR,40,2939,2978
214,ENG_ADDR_2,CHAR,40,2979,3018
215,ENG_ADDR_3,CHAR,40,3019,3058
216,ENG_CITY,CHAR,20,3059,3078
217,ENG_POSTAL_CD,CHAR,5,3079,3083
218,ENG_CTRY_NM,CHAR,20,3084,3103
219,ENG_CTRY_CD,CHAR,2,3104,3105
220,GIN_NO,CHAR,25,3106,3131
