com\tmbbank\mf\UnitholderUpdate\database\dao\TapDao.class
com\tmbbank\mf\UnitholderUpdate\output\constant\OutputConstant.class
com\tmbbank\mf\UnitholderUpdate\service\RMCUSTExtractor.class
com\tmbbank\mf\UnitholderUpdate\service\TAPDataProcess.class
com\tmbbank\mf\UnitholderUpdate\output\txt\TxtProducer.class
com\tmbbank\mf\UnitholderUpdate\output\domain\UnitholderUpdate.class
com\tmbbank\mf\UnitholderUpdate\output\constant\UnitholderUpdateLenght.class
com\tmbbank\mf\UnitholderUpdate\database\domain\RMID.class
com\tmbbank\mf\UnitholderUpdate\utils\Utils.class
com\tmbbank\mf\UnitholderUpdate\service\CBSDataProcess.class
com\tmbbank\mf\UnitholderUpdate\utils\Config.class
com\tmbbank\mf\UnitholderUpdate\main\Exec.class
com\tmbbank\mf\UnitholderUpdate\utils\CSVUtils.class
com\tmbbank\mf\UnitholderUpdate\utils\FileUtils.class
com\tmbbank\mf\UnitholderUpdate\utils\Log.class
